ckey,value,createTime,updateTime
"ENGINE_MODE","LIVE","2015-10-19 12:48:16","2015-10-19 12:48:16"
"REFERRAL_ENABLE","true","2015-10-19 12:48:16","2015-10-19 12:48:16"
"BACKEND_BASE_URL","http://10.0.2.152:8080/api/v4/","2015-10-19 12:48:16","2015-10-19 12:48:16"
"NGW_BASE_URL","http://10.0.2.215:8080/gsngw/api/v1/","2015-10-19 12:48:16","2015-10-19 12:48:16"
"REFERRAL_BASE_URL","https://services.gigsky.com/gsre/api/v1/","2015-10-19 12:48:16","2015-10-19 12:48:16"
"REQUEST_TIMEOUT_MS","000000000010000","2015-10-19 12:48:16","2015-10-19 12:48:16"
"ALERT_CREDIT_AMOUNT","900","2015-10-19 12:48:16","2015-10-19 12:48:16"
"REFERRAL_CREDIT_ADD","SignupEvent","2015-10-19 12:48:16","2015-10-19 12:48:16"
"ADVOCATE_CREDIT_ADD","PlanPurchaseEvent","2015-10-19 12:48:16","2015-10-19 12:48:16"
"REFERRAL_PROGRAM_EXEC_TIME_MS","000001000000000","2015-10-19 12:48:16","2015-10-19 12:48:16"
"EVENT_EXEC_TIME_MS","000000000005000","2015-10-19 12:48:16","2015-10-19 12:48:16"
"RETRY_CREDIT_EXEC_TIME_MS","000000010000000","2015-10-19 12:48:16","2015-10-19 12:48:16"
"SHUTDOWN_WAIT_TIME_MS","000000000010000","2015-10-19 12:48:16","2015-10-19 12:48:16"
"REFERRAL_SEND_EMAIL_COUNT","500","2015-10-19 12:48:16","2015-10-19 12:48:16"
"REFERRAL_INITIAL_DELAY","000001000000000","2015-10-19 12:48:16","2015-10-19 12:48:16"
"REFERRAL_RESEND_DELAY","000300000000000","2015-10-19 12:48:16","2015-10-19 12:48:16"
"RETRY_CREDIT_COUNT","500","2015-10-19 12:48:16","2015-10-19 12:48:16"
"EVENTS_PROCESSING_COUNT","500","2015-10-19 12:48:16","2015-10-19 12:48:16"
"REFERRAL_PROCESSING_THREADS","4","2015-10-19 12:48:16","2015-10-19 12:48:16"
"ADMIN_EMAIL","iSo5Lwyl3t3hYIHlcX3cX9oE53HX09w+dHDLEZsnZvA4tiJ1qRkMjA==","2015-10-19 12:48:16","2015-10-19 12:48:16"
"ADMIN_PASSWORD","Gk+84ol0R6q126rU7tbGmRZS1SiJmQIB","2015-10-19 12:48:16","2015-10-19 12:48:16"
"GS_ADMIN_EMAIL_ID","referral.admin@gigsky.com","2015-10-19 12:48:16","2015-10-19 12:48:16"
"MQ_QUEUE_NAME","prod.referral.queue","2015-10-19 12:48:16","2015-10-19 12:48:16"
"SCHEME_CRON_EXPRESSION","0 0 0 1/1 * ? *","2015-10-19 12:48:16","2015-10-19 12:48:16"
"BETA_MODE_ENABLE","true","2015-10-19 12:48:16","2015-10-19 12:48:16"
"API_FAILURE_MODE","false","2015-10-19 12:48:16","2015-10-19 12:48:16"