id,currency,advocateAmount,newCustomerAmount,incentiveScheme_id,createTime,updateTime
"1","USD","5","5","1","2016-12-19 12:48:16","2016-12-19 12:48:16"
"2","EUR","5","5","1","2016-12-19 12:48:16","2016-12-19 12:48:16"
"3","JPY","5","5","1","2016-12-19 12:48:16","2016-12-19 12:48:16"
"4","GBP","5","5","1","2016-12-19 12:48:16","2016-12-19 12:48:16"